{
  "id": "https://register.geonorge.no/subregister/metadata-kodelister/kartverket/tematisk-hovedkategori",
  "label": "Tematisk hovedkategori",
  "contentsummary": "Grov overordnet gruppering av tematiske kategorier for å muliggjøre søk på geografiske datasett. Kan også anvendes for å gruppere nøkkelord. Hentet fra ISO19115: MD_TopicCategoryCode",
  "owner": "kartverket",
  "manager": "kartverket",
  "containedItemClass": "CodelistValue",
  "containeditems": [
    {
      "id": "https://register.geonorge.no/subregister/metadata-kodelister/kartverket/tematisk-hovedkategori/kartverket/landbruk-og-havbruk",
      "label": "Landbruk og havbruk",
      "itemclass": "CodelistValue",
      "status": "Gyldig",
      "description": "Avling, oppdrett av dyr og fisk, dyrking av planter",
      "owner": "Kartverket",
      "versionNumber": 1,
      "versions": [],
      "lastUpdated": "2015-05-08T11:09:12.1",
      "dateSubmitted": "2015-04-09T08:03:45.65",
      "dateAccepted": "2015-04-09T08:03:45.65",
      "codevalue": "farming",
      "narrower": [],
      "AlertDate": "0001-01-01T00:00:00",
      "EffectiveDate": "0001-01-01T00:00:00"
    },
    {
      "id": "https://register.geonorge.no/subregister/metadata-kodelister/kartverket/tematisk-hovedkategori/kartverket/biologisk-mangfold",
      "label": "Biologisk mangfold",
      "itemclass": "CodelistValue",
      "status": "Gyldig",
      "description": "Flora og fauna i naturlig miljø",
      "owner": "Kartverket",
      "versionNumber": 1,
      "versions": [],
      "lastUpdated": "2015-05-08T11:08:09.2",
      "dateSubmitted": "2015-04-09T08:03:45.9",
      "dateAccepted": "2015-04-09T08:03:45.9",
      "codevalue": "biota",
      "narrower": [],
      "AlertDate": "0001-01-01T00:00:00",
      "EffectiveDate": "0001-01-01T00:00:00"
    }
  ]
}